Blog: Creating a caseload over time in R
…
Count the observations

By month and year

data_expanded %>% 
  mutate(month_year = lubridate::floor_date(dates, "1 month")) %>% 
  group_by(month_year) %>% 
  summarise(count = n_distinct(patient_id, referral_id))

# A tibble: 25 × 2
   month_year count
   <date>     <int>
 1 2019-01-01    14
 2 2019-02-01    25
 3 2019-03-01    38
 4 2019-04-01    48
 5 2019-05-01    57
 6 2019-06-01    68
 7 2019-07-01    75
 8 2019-08-01    78
 9 2019-09-01    80
10 2019-10-01    78
# ℹ 15 more rows
…
